{
    "name": "UserControls",
    "maps": [
        {
            "name": "Ground",
            "id": "e235640f-ef63-4099-b5ea-8f72546875ca",
            "actions": [
                {
                    "name": "Move",
                    "type": "PassThrough",
                    "id": "b056145f-c0df-4399-9a96-b0eb7aad442f",
                    "expectedControlType": "Vector2",
                    "processors": "",
                    "interactions": ""
                },
                {
                    "name": "Fire",
                    "type": "Button",
                    "id": "0da9c1b2-2f3f-495d-af66-1514fc9f0797",
                    "expectedControlType": "",
                    "processors": "",
                    "interactions": ""
                }
            ],
            "bindings": [
                {
                    "name": "WSAD",
                    "id": "d2a53968-a6d7-463d-a4c1-1a1991ba3d7a",
                    "path": "2DVector",
                    "interactions": "",
                    "processors": "",
                    "groups": "",
                    "action": "Move",
                    "isComposite": true,
                    "isPartOfComposite": false
                },
                {
                    "name": "up",
                    "id": "d8526919-c573-423a-9a9a-0fddf03b5cd7",
                    "path": "<Keyboard>/w",
                    "interactions": "",
                    "processors": "",
                    "groups": "",
                    "action": "Move",
                    "isComposite": false,
                    "isPartOfComposite": true
                },
                {
                    "name": "down",
                    "id": "5d12e2f7-6c73-432d-b9ec-58d41678bcf2",
                    "path": "<Keyboard>/s",
                    "interactions": "",
                    "processors": "",
                    "groups": "",
                    "action": "Move",
                    "isComposite": false,
                    "isPartOfComposite": true
                },
                {
                    "name": "left",
                    "id": "b868c37f-2853-4434-8363-4052b495022d",
                    "path": "<Keyboard>/a",
                    "interactions": "",
                    "processors": "",
                    "groups": "",
                    "action": "Move",
                    "isComposite": false,
                    "isPartOfComposite": true
                },
                {
                    "name": "right",
                    "id": "bb9ae149-1114-4ab3-ba13-fe0836212cb9",
                    "path": "<Keyboard>/d",
                    "interactions": "",
                    "processors": "",
                    "groups": "",
                    "action": "Move",
                    "isComposite": false,
                    "isPartOfComposite": true
                },
                {
                    "name": "",
                    "id": "20db1972-5c5f-4673-9228-679cb5be58f8",
                    "path": "<Mouse>/leftButton",
                    "interactions": "",
                    "processors": "",
                    "groups": "",
                    "action": "Fire",
                    "isComposite": false,
                    "isPartOfComposite": false
                }
            ]
        }
    ],
    "controlSchemes": []
}